<?xml version="1.0" encoding="utf-8"?>
<!-- Generator: Adobe Illustrator 27.3.1, SVG Export Plug-In . SVG Version: 6.00 Build 0)  -->
<svg version="1.1" id="Layer_1" xmlns="http://www.w3.org/2000/svg" xmlns:xlink="http://www.w3.org/1999/xlink" x="0px" y="0px"
	 viewBox="0 0 192.2 189.2" style="enable-background:new 0 0 192.2 189.2;" xml:space="preserve">
<style type="text/css">
	.st0{fill:#FFFFFF;}
</style>
<polygon class="st0" points="162.4,5 162.4,112.3 106.5,112.3 106.5,51.5 83.3,51.5 83.3,112.3 27.5,112.3 27.5,28.2 107.3,28.2 
	107.3,5 27.5,5 4.2,5 4.2,28.2 4.2,135.5 18.6,135.5 27.5,135.5 162.4,135.5 185.6,135.5 185.6,112.3 185.6,5 "/>
<g>
	<path class="st0" d="M35.1,161h-7.7l-4.1-12.9L19.2,161h-7.4l-7.7-18.6h5.8l5.5,14.1l4.5-14.1h6.6l4.9,14l5.3-14h5.7L35.1,161z"/>
	<path class="st0" d="M67,159.5c-1.4,1.1-3.6,1.5-5.9,1.5H50.5c-2.2,0-3.8-0.3-5.7-1.7c-1.7-1.3-1.4-4.9-1.4-6.7v-2.3
		c0-1.7-0.1-5.1,1.9-6.8c1.6-1.3,3.2-1.2,5.3-1.2h10c2.3,0,4,0.1,5.9,1.4c2.5,1.8,2.3,5.1,2.3,6.6v2.2C68.8,154.7,68.9,158,67,159.5
		z M62.6,149.2c0-0.8-0.2-1.4-0.8-1.9s-1.3-0.5-2.1-0.5h-7.2c-0.5,0-1.7-0.1-2.3,0.4c-0.9,0.6-1,1.5-1,2.6v3.8c0,0.9,0,1.6,0.6,2.3
		c0.4,0.5,1.7,0.8,2.3,0.8h7.7c0.9,0,1.6-0.2,2.1-0.6c0.6-0.5,0.8-1.2,0.8-2V149.2z"/>
	<path class="st0" d="M71.2,161v-18.6h5.4v14.2h13.9v4.4H71.2z"/>
	<path class="st0" d="M92.2,161v-18.6h5.5v14.2h13.9v4.4H92.2z"/>
	<path class="st0" d="M129.9,161l-10.8-13.5V161h-5.8v-18.6h8.8L133,156v-13.6h5.5V161H129.9z"/>
	<path class="st0" d="M140.9,161v-18.6h20v4.3h-14.4v3.1h13.7v3.7h-13.6v3.1h14.7v4.4H140.9z"/>
	<path class="st0" d="M180.3,161v-3.3c0-0.6-0.2-0.9-0.6-1.2c-0.4-0.3-0.7-0.4-1.1-0.4h-9.3v4.9l-5.5,0v-18.6h16.7
		c1.4,0,2.5,0.1,3.6,0.9c1.3,1,1.9,2.2,1.9,3.9v2.7c0,1.2-0.2,2.2-1.1,2.9c-0.8,0.5-2.1,0.9-2.2,0.9c0.3,0,2,0.5,2.7,1.5
		c0.5,0.7,0.6,1.4,0.6,2.3v3.6H180.3z M180.5,148.6c0-0.6,0-1-0.4-1.4c-0.4-0.4-0.9-0.4-1.5-0.4h-9.5v4.9h9.2c0.7,0,1.2,0,1.7-0.5
		c0.3-0.3,0.5-0.7,0.5-1.2V148.6z"/>
</g>
<g>
	<path class="st0" d="M24.1,183.5c-1.8,1.6-4.9,1.2-7.4,1.2h-4.2c-0.6,0-3.2,0.2-5.2-1.4c-1-0.8-1.1-2.6-1.1-3.1v-1.1h2.2v0.9
		c0,0.7,0.1,1.2,0.4,1.7c0.7,1.1,3.5,1,5.8,1h3c0.8,0,4-0.1,4.9-1c0.5-0.5,0.7-0.9,0.7-1.6v-0.7c0-0.9,0-1.7-0.8-2.4
		c-0.6-0.5-1.7-0.5-2.8-0.5H12c-0.3,0-2.3,0-3.4-0.5c-1.6-0.7-2.4-1.8-2.4-3.6v-0.6c0-1.9,0.4-3.5,2.4-4.4c1.3-0.6,4.4-0.6,5.9-0.6
		h2.3c2.4,0,5.8-0.1,7.1,1.5c0.9,1.1,1.1,1.8,1.1,3.1v0.7h-2.3v-0.9c0-0.7-0.2-1.2-0.7-1.6c-0.9-0.9-3.5-0.7-4-0.7h-4.7
		c-2.8,0-3.8,0.3-4.4,0.9s-0.5,1.3-0.5,2.1v0.3c0,0.7,0.2,1.3,0.6,1.7c0.8,0.9,1.8,0.7,3,0.7h8c0.3,0,2.5,0.2,3.5,0.8
		c1.3,0.7,2,1.7,2,3.7v1C25.6,181.8,25.1,182.8,24.1,183.5z"/>
	<path class="st0" d="M44.8,168.9v15.8h-2v-15.8h-9v-2h19.7v2H44.8z"/>
	<path class="st0" d="M81.4,183.6c-1.7,1.4-5.4,1.2-7.8,1.2h-2.4c-2.4,0-6.1,0.3-7.9-1c-1.3-0.9-1.5-2.3-1.5-3.9V167H64v12.7
		c0,0.5,0,1.5,0.5,2.2c0.7,1,2.7,0.9,5.1,0.9h5.2c1.9,0,4,0.1,4.9-0.8c0.5-0.5,0.6-1.5,0.6-2.4V167h2.2v13.1
		C82.6,181.5,82.5,182.7,81.4,183.6z"/>
	<path class="st0" d="M111.3,182.9c-2,1.9-4.1,1.8-6.8,1.8l-13,0l0-17.8H106c1.6,0,2.9,0.1,4.1,0.7c2.4,1.3,2.9,4,2.9,6.9v2.7
		C113,179.6,112.7,181.5,111.3,182.9z M110.6,174.7c0-2.7-0.6-4.3-1.8-5.1c-0.9-0.6-2.2-0.7-3.6-0.7H93.8v13.9h10.2
		c2,0,3.9,0.1,5.2-0.9c0.9-0.7,1.5-2.2,1.5-4.8V174.7z"/>
	<path class="st0" d="M122.5,184.8V167h2.4v17.8H122.5z"/>
	<path class="st0" d="M155.3,183.6c-1.4,1.3-5.7,1.1-7.6,1.1h-6.1c-0.2,0-4.8,0.3-6.1-1.8c-0.7-1.1-1.2-2.5-1.2-5.2v-3.4
		c0-2.6,0.5-5.2,1.9-6.3c1.6-1.3,6.3-1.1,7.2-1.1h6.3c0.9,0,4.7,0,6,1.5c1.1,1.3,1.5,3.4,1.5,6.1v3.7
		C157.1,180.2,156.7,182.4,155.3,183.6z M154.7,175.3c0-2.2,0-4.6-1.2-5.6c-0.9-0.7-2.6-0.8-4.2-0.8h-6.7c-1.9,0-4.1-0.1-4.9,0.9
		c-1.1,1.4-1,3.2-1,5.2v2.5c0,2,0.4,3.6,0.9,4.2c0.7,0.8,2.2,0.9,5.4,0.9h5c1.1,0,4.5,0.1,5.4-0.7c1-0.8,1.2-2.6,1.2-4.4V175.3z"/>
	<path class="st0" d="M183.9,183.5c-1.8,1.6-4.9,1.2-7.4,1.2h-4.2c-0.6,0-3.2,0.2-5.2-1.4c-1-0.8-1.1-2.6-1.1-3.1v-1.1h2.2v0.9
		c0,0.7,0.1,1.2,0.4,1.7c0.7,1.1,3.5,1,5.8,1h3c0.8,0,4-0.1,4.9-1c0.5-0.5,0.7-0.9,0.7-1.6v-0.7c0-0.9,0-1.7-0.8-2.4
		c-0.6-0.5-1.7-0.5-2.8-0.5h-7.7c-0.3,0-2.3,0-3.4-0.5c-1.6-0.7-2.4-1.8-2.4-3.6v-0.6c0-1.9,0.4-3.5,2.4-4.4
		c1.3-0.6,4.4-0.6,5.9-0.6h2.3c2.4,0,5.8-0.1,7.1,1.5c0.9,1.1,1.2,1.8,1.1,3.1v0.7h-2.3v-0.9c0-0.7-0.2-1.2-0.7-1.6
		c-0.9-0.9-3.5-0.7-4-0.7h-4.7c-2.8,0-3.8,0.3-4.4,0.9s-0.5,1.3-0.5,2.1v0.3c0,0.7,0.2,1.3,0.6,1.7c0.8,0.9,1.8,0.7,3,0.7h8
		c0.3,0,2.5,0.2,3.5,0.8c1.3,0.7,2,1.7,2,3.7v1C185.3,181.8,184.8,182.8,183.9,183.5z"/>
</g>
</svg>
